\relax 
\@writefile{lof}{\contentsline {figure}{\numberline {1}{\ignorespaces Transfer Function Plotter app}}{1}\protected@file@percent }
\newlabel{appGUI}{{1}{1}}
\@writefile{lof}{\contentsline {figure}{\numberline {2}{\ignorespaces Undock or Remove a component from the Matlab window}}{3}\protected@file@percent }
\newlabel{undock}{{2}{3}}
\@writefile{lof}{\contentsline {figure}{\numberline {3}{\ignorespaces Add a component to the Matlab window}}{3}\protected@file@percent }
\newlabel{add_component}{{3}{3}}
